Práctica de Evaluación FAD - Métodos de Análisis de Datos
…
library(readr)
library(ggplot2)
library(GGally)
library(dplyr)
library(tidyr)
library(missForest)

2.2 Cargar los datos

El conjunto de datos “Hospital Charges in America” contiene 12 columnas y 163065 filas y está en formato .csv. Inicialmente se guardó los datos en un data frame “hospital_charges” y hizo un estudio inicial de su contenido utilizando la función head y summary.

hospital_charges <- read_csv("notebooks/hospital-charges.csv")
hospital_charges

## # A tibble: 163,065 x 12
##    `DRG Definition`        `Provider Id` `Provider Name`      `Provider Street ~
##    <chr>                           <dbl> <chr>                <chr>             
##  1 039 - EXTRACRANIAL PRO~         10001 SOUTHEAST ALABAMA M~ 1108 ROSS CLARK C~
##  2 039 - EXTRACRANIAL PRO~         10005 MARSHALL MEDICAL CE~ 2505 U S HIGHWAY ~
##  3 039 - EXTRACRANIAL PRO~         10006 ELIZA COFFEE MEMORI~ 205 MARENGO STREET
##  4 039 - EXTRACRANIAL PRO~         10011 ST VINCENT'S EAST    50 MEDICAL PARK E~
##  5 039 - EXTRACRANIAL PRO~         10016 SHELBY BAPTIST MEDI~ 1000 FIRST STREET~
##  6 039 - EXTRACRANIAL PRO~         10023 BAPTIST MEDICAL CEN~ 2105 EAST SOUTH B~
##  7 039 - EXTRACRANIAL PRO~         10029 EAST ALABAMA MEDICA~ 2000 PEPPERELL PA~
##  8 039 - EXTRACRANIAL PRO~         10033 UNIVERSITY OF ALABA~ 619 SOUTH 19TH ST~
##  9 039 - EXTRACRANIAL PRO~         10039 HUNTSVILLE HOSPITAL  101 SIVLEY RD     
## 10 039 - EXTRACRANIAL PRO~         10040 GADSDEN REGIONAL ME~ 1007 GOODYEAR AVE~
## # ... with 163,055 more rows, and 8 more variables: Provider City <chr>,
## #   Provider State <chr>, Provider Zip Code <dbl>,
## #   Hospital Referral Region Description <chr>, Total Discharges <dbl>,
## #   Average Covered Charges <chr>, Average Total Payments <chr>,
## #   Average Medicare Payments <chr>
…
3. Detección, tratamiento e imputación de datos faltantes

Através de la función summary se comprobó que no hay datos faltantes en el data set y por eso el grupo tuvo que añadirlos manualmente para aproximarse mejor de un caso real con datos faltantes. Los datos faltantes fueron imputados solo en las columnas que no van a servir de analísis para este estudio.

Uctilizamos la libreria missForest y generamos una semilla para que el resultado sea siempre el mismo.

set.seed(101)
hospital_charges <- bind_cols(hospital_charges[c(1, 3, 5, 7,
    8, 9, 11, 12)], missForest::prodNA(hospital_charges[c(-1,
    -3, -5, -7, -8, -9, -11, -12)], noNA = 0.1))

hospital_charges

## # A tibble: 163,065 x 12
##    `DRG Definition`        `Provider Name`      `Provider City` `Provider Zip C~
##    <chr>                   <chr>                <chr>                      <dbl>
##  1 039 - EXTRACRANIAL PRO~ SOUTHEAST ALABAMA M~ DOTHAN                     36301
##  2 039 - EXTRACRANIAL PRO~ MARSHALL MEDICAL CE~ BOAZ                       35957
##  3 039 - EXTRACRANIAL PRO~ ELIZA COFFEE MEMORI~ FLORENCE                   35631
##  4 039 - EXTRACRANIAL PRO~ ST VINCENT'S EAST    BIRMINGHAM                 35235
##  5 039 - EXTRACRANIAL PRO~ SHELBY BAPTIST MEDI~ ALABASTER                  35007
##  6 039 - EXTRACRANIAL PRO~ BAPTIST MEDICAL CEN~ MONTGOMERY                 36116
##  7 039 - EXTRACRANIAL PRO~ EAST ALABAMA MEDICA~ OPELIKA                    36801
##  8 039 - EXTRACRANIAL PRO~ UNIVERSITY OF ALABA~ BIRMINGHAM                 35233
##  9 039 - EXTRACRANIAL PRO~ HUNTSVILLE HOSPITAL  HUNTSVILLE                 35801
## 10 039 - EXTRACRANIAL PRO~ GADSDEN REGIONAL ME~ GADSDEN                    35903
## # ... with 163,055 more rows, and 8 more variables:
## #   Hospital Referral Region Description <chr>, Total Discharges <dbl>,
## #   Average Total Payments <chr>, Average Medicare Payments <chr>,
## #   Provider Id <dbl>, Provider Street Address <chr>, Provider State <chr>,
## #   Average Covered Charges <chr>
…
# referencia https://rpubs.com/sediaz/na_aggr

4. Partición del conjunto de datos: data set training y data set test

Se divide el conjunto de datos en dos (20% test y 80% training), guardando la partición test para ser utilizada par la validación del modelo final y trabajando con la partición training.

set.seed(101)
sample <- sample.int(n = nrow(hospital_charges), size = floor(0.8 *
    nrow(hospital_charges)), replace = F)
train <- hospital_charges[sample, ]
test <- hospital_charges[-sample, ]

train

## # A tibble: 130,452 x 12
##    `DRG Definition`          `Provider Name`    `Provider City` `Provider Zip C~
##    <chr>                     <chr>              <chr>                      <dbl>
##  1 064 - INTRACRANIAL HEMOR~ RIVERVIEW HOSPITAL NOBLESVILLE                46060
##  2 439 - DISORDERS OF PANCR~ ST LUKE'S ROOSEVE~ NEW YORK                   10025
##  3 853 - INFECTIOUS & PARAS~ ST JOSEPH'S MEDIC~ YONKERS                    10701
##  4 329 - MAJOR SMALL & LARG~ UNIVERSITY OF KAN~ KANSAS CITY                66160
##  5 195 - SIMPLE PNEUMONIA &~ GARDEN CITY HOSPI~ GARDEN CITY                48135
##  6 176 - PULMONARY EMBOLISM~ HORIZON MEDICAL C~ DICKSON                    37055
##  7 641 - MISC DISORDERS OF ~ BAYLOR UNIVERSITY~ DALLAS                     75246
##  8 638 - DIABETES W CC       ST ELIZABETH FLOR~ FLORENCE                   41042
##  9 872 - SEPTICEMIA OR SEVE~ ST JOSEPH'S HOSPI~ SYRACUSE                   13203
## 10 439 - DISORDERS OF PANCR~ SOUTH POINTE HOSP~ WARRENSVILLE HE            44122
## # ... with 130,442 more rows, and 8 more variables:
## #   Hospital Referral Region Description <chr>, Total Discharges <dbl>,
## #   Average Total Payments <chr>, Average Medicare Payments <chr>,
## #   Provider Id <dbl>, Provider Street Address <chr>, Provider State <chr>,
## #   Average Covered Charges <chr>

test

## # A tibble: 32,613 x 12
##    `DRG Definition`       `Provider Name`       `Provider City` `Provider Zip C~
##    <chr>                  <chr>                 <chr>                      <dbl>
##  1 039 - EXTRACRANIAL PR~ MARSHALL MEDICAL CEN~ BOAZ                       35957
##  2 039 - EXTRACRANIAL PR~ SOUTH BALDWIN REGION~ FOLEY                      36535
##  3 039 - EXTRACRANIAL PR~ MOBILE INFIRMARY      MOBILE                     36652
##  4 039 - EXTRACRANIAL PR~ TUCSON MEDICAL CENTER TUCSON                     85712
##  5 039 - EXTRACRANIAL PR~ CARONDELET ST JOSEPH~ TUCSON                     85711
##  6 039 - EXTRACRANIAL PR~ ST JOSEPH'S HOSPITAL~ PHOENIX                    85013
##  7 039 - EXTRACRANIAL PR~ BANNER BOSWELL MEDIC~ SUN CITY                   85351
##  8 039 - EXTRACRANIAL PR~ SUMMIT HEALTHCARE RE~ SHOW LOW                   85901
##  9 039 - EXTRACRANIAL PR~ BANNER HEART HOSPITAL MESA                       85206
## 10 039 - EXTRACRANIAL PR~ CONWAY REGIONAL MEDI~ CONWAY                     72034
## # ... with 32,603 more rows, and 8 more variables:
## #   Hospital Referral Region Description <chr>, Total Discharges <dbl>,
## #   Average Total Payments <chr>, Average Medicare Payments <chr>,
## #   Provider Id <dbl>, Provider Street Address <chr>, Provider State <chr>,
## #   Average Covered Charges <chr>
…
5.2. Definición de objetivos

El objetivo final del proyecto es llegar a un modelo para recomendar que hospital debe elegir un paciente enfermo en EEUU, en base a su posible enfermedad, su localización y los costes que su caso clínico puede llegar a tener.

Para esta primera entrega el objetivo es realizar el tratamiento de datos adecuado y seleccionar las mejores variables que servirán para llegar al modelo Machine Learning desedo.Se desea también hacer un ajuste, interpretación y diagnosis del modelo de regresión linela múltiple.

5.3. Transformaciones de variables cuantitativas y procesado de variables cualitativas - Limpieza de datos

Se ha decidido cambiar los nombres de las columnas para seguir un patrón y eliminar el simbolo de dolar de las últimas tres columnas, transformando las columnas a tipo numérico.

5.3.1 Cambiar los nombres de las columnas

train

## # A tibble: 130,452 x 12
##    `DRG Definition`          `Provider Name`    `Provider City` `Provider Zip C~
##    <chr>                     <chr>              <chr>                      <dbl>
##  1 064 - INTRACRANIAL HEMOR~ RIVERVIEW HOSPITAL NOBLESVILLE                46060
##  2 439 - DISORDERS OF PANCR~ ST LUKE'S ROOSEVE~ NEW YORK                   10025
##  3 853 - INFECTIOUS & PARAS~ ST JOSEPH'S MEDIC~ YONKERS                    10701
##  4 329 - MAJOR SMALL & LARG~ UNIVERSITY OF KAN~ KANSAS CITY                66160
##  5 195 - SIMPLE PNEUMONIA &~ GARDEN CITY HOSPI~ GARDEN CITY                48135
##  6 176 - PULMONARY EMBOLISM~ HORIZON MEDICAL C~ DICKSON                    37055
##  7 641 - MISC DISORDERS OF ~ BAYLOR UNIVERSITY~ DALLAS                     75246
##  8 638 - DIABETES W CC       ST ELIZABETH FLOR~ FLORENCE                   41042
##  9 872 - SEPTICEMIA OR SEVE~ ST JOSEPH'S HOSPI~ SYRACUSE                   13203
## 10 439 - DISORDERS OF PANCR~ SOUTH POINTE HOSP~ WARRENSVILLE HE            44122
## # ... with 130,442 more rows, and 8 more variables:
## #   Hospital Referral Region Description <chr>, Total Discharges <dbl>,
## #   Average Total Payments <chr>, Average Medicare Payments <chr>,
## #   Provider Id <dbl>, Provider Street Address <chr>, Provider State <chr>,
## #   Average Covered Charges <chr>
…
5.4 Creando columna nueva mean_total_payments - mean_medicare_payments

Nueva variable con el valor de los copagos que paga el paciente más cualquier cosa que pague el seguro secundario (seguro privado).

train <- train %>%
    mutate(copagos = mean_total_payments - mean_medicare_payments)
train

## # A tibble: 130,452 x 13
##    drg_def         prov_name    prov_city prov_zip referral_reg total_discharges
##    <chr>           <chr>        <chr>     <fct>    <chr>                   <dbl>
##  1 064 - INTRACRA~ RIVERVIEW H~ NOBLESVI~ 46060    IN - Indian~               11
##  2 439 - DISORDER~ ST LUKE'S R~ NEW YORK  10025    NY - Manhat~               13
##  3 853 - INFECTIO~ ST JOSEPH'S~ YONKERS   10701    NY - White ~               17
##  4 329 - MAJOR SM~ UNIVERSITY ~ KANSAS C~ 66160    MO - Kansas~               44
##  5 195 - SIMPLE P~ GARDEN CITY~ GARDEN C~ 48135    MI - Dearbo~               52
##  6 176 - PULMONAR~ HORIZON MED~ DICKSON   37055    TN - Nashvi~               14
##  7 641 - MISC DIS~ BAYLOR UNIV~ DALLAS    75246    TX - Dallas               110
##  8 638 - DIABETES~ ST ELIZABET~ FLORENCE  41042    KY - Coving~               15
##  9 872 - SEPTICEM~ ST JOSEPH'S~ SYRACUSE  13203    NY - Syracu~               70
## 10 439 - DISORDER~ SOUTH POINT~ WARRENSV~ 44122    OH - Clevel~               20
## # ... with 130,442 more rows, and 7 more variables: mean_total_payments <dbl>,
## #   mean_medicare_payments <dbl>, prov_id <fct>, prov_address <chr>,
## #   prov_state <chr>, mean_covered_charges <dbl>, copagos <dbl>

Nueva variable con el percentual de cobertura de Medicare

library(formattable)

train <- train %>% mutate(cobertura = percent(mean_medicare_payments/mean_total_payments)) 

train

## # A tibble: 130,452 x 14
##    drg_def         prov_name    prov_city prov_zip referral_reg total_discharges
##    <chr>           <chr>        <chr>     <fct>    <chr>                   <dbl>
##  1 064 - INTRACRA~ RIVERVIEW H~ NOBLESVI~ 46060    IN - Indian~               11
##  2 439 - DISORDER~ ST LUKE'S R~ NEW YORK  10025    NY - Manhat~               13
##  3 853 - INFECTIO~ ST JOSEPH'S~ YONKERS   10701    NY - White ~               17
##  4 329 - MAJOR SM~ UNIVERSITY ~ KANSAS C~ 66160    MO - Kansas~               44
##  5 195 - SIMPLE P~ GARDEN CITY~ GARDEN C~ 48135    MI - Dearbo~               52
##  6 176 - PULMONAR~ HORIZON MED~ DICKSON   37055    TN - Nashvi~               14
##  7 641 - MISC DIS~ BAYLOR UNIV~ DALLAS    75246    TX - Dallas               110
##  8 638 - DIABETES~ ST ELIZABET~ FLORENCE  41042    KY - Coving~               15
##  9 872 - SEPTICEM~ ST JOSEPH'S~ SYRACUSE  13203    NY - Syracu~               70
## 10 439 - DISORDER~ SOUTH POINT~ WARRENSV~ 44122    OH - Clevel~               20
## # ... with 130,442 more rows, and 8 more variables: mean_total_payments <dbl>,
## #   mean_medicare_payments <dbl>, prov_id <fct>, prov_address <chr>,
## #   prov_state <chr>, mean_covered_charges <dbl>, copagos <dbl>,
## #   cobertura <formttbl>

5.5 Grafico EEUU total payments

# Haciendo la media de lo que cobra el hospital por estado

region_geog <- train %>%
    group_by(prov_state) %>%
    summarise(mean_total_price = mean(copagos))

region_geog

## # A tibble: 52 x 2
##    prov_state mean_total_price
##    <chr>                 <dbl>
##  1 AK                    1639.
##  2 AL                    1151.
##  3 AR                    1092.
##  4 AZ                    1320.
##  5 CA                    1142.
##  6 CO                    1337.
##  7 CT                    1279.
##  8 DC                    1216.
##  9 DE                    1384.
## 10 FL                    1164.
## # ... with 42 more rows

# Libreria usmap tiene el mapa de EEUU por estado
library(usmap)

statepop  #en libreria usmap hay un dataframe que es la populacion para cada estado (siglas -abbr ) y nos interesa agrupar a este data frame la columna mean_total_payments

## # A tibble: 51 x 4
##    fips  abbr  full                 pop_2015
##    <chr> <chr> <chr>                   <dbl>
##  1 01    AL    Alabama               4858979
##  2 02    AK    Alaska                 738432
##  3 04    AZ    Arizona               6828065
##  4 05    AR    Arkansas              2978204
##  5 06    CA    California           39144818
##  6 08    CO    Colorado              5456574
##  7 09    CT    Connecticut           3590886
##  8 10    DE    Delaware               945934
##  9 11    DC    District of Columbia   672228
## 10 12    FL    Florida              20271272
## # ... with 41 more rows
…
Separar columna drg_def

#test <- data.frame(x = train$drg_def)

train <-train %>% 
separate(data = ., col = drg_def, 
     into = c("codigo_enf", "desc_enf"), sep = "-")

train

## # A tibble: 130,452 x 15
##    codigo_enf desc_enf            prov_name      prov_city prov_zip referral_reg
##    <chr>      <chr>               <chr>          <chr>     <fct>    <chr>       
##  1 "064 "     " INTRACRANIAL HEM~ RIVERVIEW HOS~ NOBLESVI~ 46060    IN - Indian~
##  2 "439 "     " DISORDERS OF PAN~ ST LUKE'S ROO~ NEW YORK  10025    NY - Manhat~
##  3 "853 "     " INFECTIOUS & PAR~ ST JOSEPH'S M~ YONKERS   10701    NY - White ~
##  4 "329 "     " MAJOR SMALL & LA~ UNIVERSITY OF~ KANSAS C~ 66160    MO - Kansas~
##  5 "195 "     " SIMPLE PNEUMONIA~ GARDEN CITY H~ GARDEN C~ 48135    MI - Dearbo~
##  6 "176 "     " PULMONARY EMBOLI~ HORIZON MEDIC~ DICKSON   37055    TN - Nashvi~
##  7 "641 "     " MISC DISORDERS O~ BAYLOR UNIVER~ DALLAS    75246    TX - Dallas 
##  8 "638 "     " DIABETES W CC"    ST ELIZABETH ~ FLORENCE  41042    KY - Coving~
##  9 "872 "     " SEPTICEMIA OR SE~ ST JOSEPH'S H~ SYRACUSE  13203    NY - Syracu~
## 10 "439 "     " DISORDERS OF PAN~ SOUTH POINTE ~ WARRENSV~ 44122    OH - Clevel~
## # ... with 130,442 more rows, and 9 more variables: total_discharges <dbl>,
## #   mean_total_payments <dbl>, mean_medicare_payments <dbl>, prov_id <fct>,
## #   prov_address <chr>, prov_state <chr>, mean_covered_charges <dbl>,
## #   copagos <dbl>, cobertura <formttbl>
…
Grafico de calor - ratio de cobertura por estado por enfermedad

test <- top_10_caras %>% inner_join(train)
test

## # A tibble: 9,048 x 16
##    codigo_enf   mean desc_enf      prov_name     prov_city prov_zip referral_reg
##    <chr>       <dbl> <chr>         <chr>         <chr>     <fct>    <chr>       
##  1 "870 "     44467. " SEPTICEMIA~ SOUTHWEST GE~ MIDDLEBU~ 44130    OH - Clevel~
##  2 "870 "     44467. " SEPTICEMIA~ DOWNEY REGIO~ DOWNEY    90241    CA - Los An~
##  3 "870 "     44467. " SEPTICEMIA~ CORONA REGIO~ CORONA    92882    CA - Orange~
##  4 "870 "     44467. " SEPTICEMIA~ ST JOSEPH'S ~ PATERSON  7503     NJ - Paters~
##  5 "870 "     44467. " SEPTICEMIA~ UNIVERSITY O~ SEATTLE   98195    WA - Seattle
##  6 "870 "     44467. " SEPTICEMIA~ KINGSTON HOS~ KINGSTON  12401    NY - Albany 
##  7 "870 "     44467. " SEPTICEMIA~ MERCY HEALTH~ MUSKEGON  49444    MI - Muskeg~
##  8 "870 "     44467. " SEPTICEMIA~ ST LUKE'S HO~ MAUMEE    43537    OH - Toledo 
##  9 "870 "     44467. " SEPTICEMIA~ UNIVERSITY O~ BIRMINGH~ 35233    AL - Birmin~
## 10 "870 "     44467. " SEPTICEMIA~ BETH ISRAEL ~ BOSTON    2215     MA - Boston 
## # ... with 9,038 more rows, and 9 more variables: total_discharges <dbl>,
## #   mean_total_payments <dbl>, mean_medicare_payments <dbl>, prov_id <fct>,
## #   prov_address <chr>, prov_state <chr>, mean_covered_charges <dbl>,
## #   copagos <dbl>, cobertura <formttbl>
…
#train %>% select(1:14) %>%
#  na.omit() %>%
#  ggpairs(columns = 1:13, ggplot2::aes(colour=group),cardinality_threshold=50000)

library(cowplot)

train_num <- train %>%
    select_if(is.numeric)
train_num

## # A tibble: 130,452 x 6
##    total_discharges mean_total_payme~ mean_medicare_pa~ mean_covered_ch~ copagos
##               <dbl>             <dbl>             <dbl>            <dbl>   <dbl>
##  1               11            11086.             8772.              NA    2314.
##  2               13            11853.            11076.           40094.    776.
##  3               17            47649             44184.           43851.   3465.
##  4               44            42984.            41458.              NA    1526.
##  5               52             5235.             4358.            9830.    877.
##  6               14             6612.             5248.           22260.   1364 
##  7              110             5407.             4304.           16005.   1103.
##  8               15             5160.             4043.           13639.   1117.
##  9               70             8729.             6518.           16849.   2211.
## 10               20             6411              5708.              NA     703.
## # ... with 130,442 more rows, and 1 more variable: cobertura <formttbl>
…
